%YAML 1.1
%TAG !u! tag:unity3d.com,2011:
--- !u!114 &11400000
MonoBehaviour:
  m_ObjectHideFlags: 0
  m_CorrespondingSourceObject: {fileID: 0}
  m_PrefabInstance: {fileID: 0}
  m_PrefabAsset: {fileID: 0}
  m_GameObject: {fileID: 0}
  m_Enabled: 1
  m_EditorHideFlags: 0
  m_Script: {fileID: 11500000, guid: bbb281ee3bf0b054c82ac2347e9e782c, type: 3}
  m_Name: Default Local Group
  m_EditorClassIdentifier: 
  m_GroupName: Default Local Group
  m_Data:
    m_SerializedData: []
  m_GUID: 451f0cc2da5ff4a64bde071b57c57baa
  m_SerializeEntries:
  - m_GUID: 8e91b36001cc940f4a4c6f62658f2666
    m_Address: NumbersAtlas
    m_ReadOnly: 0
    m_SerializedLabels: []
  m_ReadOnly: 0
  m_Settings: {fileID: 11400000, guid: 8b1c0aa4446e947b7b22f75f50edec98, type: 2}
  m_SchemaSet:
    m_Schemas:
    - {fileID: 11400000, guid: 6285444046e7748289662ee9975db114, type: 2}
    - {fileID: 11400000, guid: 92ddff7e4088f477898264422c4e046d, type: 2}
